%YAML 1.1
%TAG !u! tag:unity3d.com,2011:
--- !u!1045 &1
EditorBuildSettings:
  m_ObjectHideFlags: 0
  serializedVersion: 2
  m_Scenes:
  - enabled: 1
    path: Assets/Scenes/Level 1.unity
    guid: b6a355a591ede5047832d1d207f6840c
  - enabled: 1
    path: Assets/Scenes/Level 2.unity
    guid: f7b2eb57179ef2749928fafb6d6e15a5
  - enabled: 1
    path: Assets/Scenes/Level Select.unity
    guid: ce90449610cdc28488524151d894d4c3
